[
  "_SP",
  "ROOT",
  "SELLER",
  "ADDRESS",
  "TIMESTAMP",
  "TOTAL_COST",
  "TOTAL_TOTAL_COST",
  "PH\u00d3",
  "ph\u00f3",
  "P",
  "XXX",
  "vi",
  "M\u1ece",
  "m\u1ecf",
  "M",
  "XX",
  "T\u1ed5",
  "t\u1ed5",
  "T",
  "Xx",
  "7",
  "d",
  "khu",
  "k",
  "xxx",
  "T\u00e2n_L\u1eadp",
  "t\u00e2n_l\u1eadp",
  "L\u1eadp",
  "Xxx_Xxx",
  "4",
  "-",
  "P_C\u1ea9m_Thu\u1ef7_Tp.",
  "p_c\u1ea9m_thu\u1ef7_tp.",
  "Tp.",
  "X_Xxx_Xxxx_Xx.",
  "C\u1ea9m_Ph\u1ea3",
  "c\u1ea9m_ph\u1ea3",
  "C",
  "Ph\u1ea3",
  "Qu\u1ea3ng_Ninh",
  "qu\u1ea3ng_ninh",
  "Q",
  "inh",
  "Xxxxx_Xxxx",
  "10,000",
  "1",
  "000",
  "dd,ddd",
  "MINIMART",
  "minimart",
  "ART",
  "XXXX",
  "ANAN",
  "anan",
  "A",
  "NAN",
  "Ch\u1ee3",
  "ch\u1ee3",
  "Xxx",
  "S\u1ee7i",
  "s\u1ee7i",
  "S",
  "Ph\u00fa_Th\u1ecb_Gia_L\u00e2m",
  "ph\u00fa_th\u1ecb_gia_l\u00e2m",
  "L\u00e2m",
  "Xxx_Xxx_Xxx_Xxx",
  "Ng\u00e0y",
  "ng\u00e0y",
  "N",
  "g\u00e0y",
  "Xxxx",
  ":",
  "16",
  "dd",
  "/",
  "08",
  "0",
  "2020",
  "2",
  "020",
  "dddd",
  "19",
  "57",
  "5",
  "T\u1ed5ng_ti\u1ec1n",
  "t\u1ed5ng_ti\u1ec1n",
  "i\u1ec1n",
  "Xxxx_xxxx",
  "479,000",
  "ddd,ddd",
  "15",
  "17",
  "534,012",
  "012",
  "VinCommerce",
  "vincommerce",
  "V",
  "rce",
  "XxxXxxxx",
  "VM",
  "vm",
  "+",
  "QNH",
  "qnh",
  "D\u1ef1_\u00e1n",
  "d\u1ef1_\u00e1n",
  "D",
  "_\u00e1n",
  "Xx_xx",
  "qu\u1ef9",
  "q",
  "\u0111\u1ea5t",
  "\u0111",
  "\u0111\u01b0\u1eddng_s\u1eaft",
  "s\u1eaft",
  "xxxx_xxx",
  "DA",
  "da",
  "Q\u0110",
  "q\u0111",
  "doc",
  "tuy\u1ebfn",
  "t",
  "y\u1ebfn",
  "xxxx",
  "\u0110S",
  "\u0111s",
  "\u0110",
  "3",
  "Khu",
  "K",
  "P.",
  "p.",
  "X.",
  "C\u1ea9m_S\u01a1n",
  "c\u1ea9m_s\u01a1n",
  "S\u01a1n",
  ",",
  "TP.",
  "tp.",
  "XX.",
  "T.",
  "t.",
  "QN",
  "qn",
  "b\u00e1n",
  "b",
  "11",
  "41",
  "T\u1ed4NG_TI\u1ec0N",
  "I\u1ec0N",
  "XXXX_XXXX",
  "PH\u1ea2I",
  "ph\u1ea3i",
  "H\u1ea2I",
  "TO\u00c1N",
  "to\u00e1n",
  "O\u00c1N",
  "30.900",
  "900",
  "dd.ddd",
  "13",
  "10",
  "27",
  "T\u1ed5ng_c\u1ed9ng",
  "t\u1ed5ng_c\u1ed9ng",
  "\u1ed9ng",
  "200,000",
  "C\u1eecA_H\u00c0NG",
  "c\u1eeda_h\u00e0ng",
  "\u00c0NG",
  "XXX_XXXX",
  "N\u0102M",
  "n\u0103m",
  "O\u00c1NH",
  "o\u00e1nh",
  "O",
  "\u00c1NH",
  "Th\u00f4n",
  "th\u00f4n",
  "h\u00f4n",
  "Ph\u00fa_Thu\u1ec7",
  "ph\u00fa_thu\u1ec7",
  "hu\u1ec7",
  "Xxx_Xxxx",
  "x\u00e3",
  "x",
  "xx",
  "Ph\u00fa_Th\u1ecb",
  "ph\u00fa_th\u1ecb",
  "Th\u1ecb",
  "Huy\u1ec7n",
  "huy\u1ec7n",
  "H",
  "y\u1ec7n",
  "Xxxxx",
  "Gia_L\u00e2m",
  "gia_l\u00e2m",
  "G",
  "TP",
  "tp",
  "H\u00e0_N\u1ed9i",
  "h\u00e0_n\u1ed9i",
  "N\u1ed9i",
  "Xx_Xxx",
  "C\u1ed9ng",
  "c\u1ed9ng",
  "ti\u1ec1n",
  "h\u00e0ng",
  "h",
  "\u00e0ng",
  "22,300",
  "300",
  "Ph\u00fa_Thu\u1ef5",
  "ph\u00fa_thu\u1ef5",
  "hu\u1ef5",
  "X\u00e3",
  "126,000",
  "THE",
  "the",
  "COFFEE",
  "coffee",
  "FEE",
  "HQUSE",
  "hquse",
  "USE",
  "403",
  "ddd",
  "Phan_Huy_\u00cdch",
  "phan_huy_\u00edch",
  "\u00cdch",
  "Xxxx_Xxx_Xxx",
  "14",
  "Q.",
  "q.",
  "G\u00f2_V\u1ea5p",
  "g\u00f2_v\u1ea5p",
  "V\u1ea5p",
  "Th\u1eddi_gian",
  "th\u1eddi_gian",
  "ian",
  "20200944",
  "944",
  "Th\u00e0nh",
  "th\u00e0nh",
  "\u00e0nh",
  "80",
  "8",
  "18",
  "38",
  "103,000",
  "26",
  "170990",
  "990",
  "Saigon_Co",
  "saigon_co",
  "_Co",
  "Xxxxx_Xx",
  ".",
  "op",
  "o",
  "Co",
  "co",
  "Food",
  "food",
  "F",
  "ood",
  "HN",
  "hn",
  "THE_K",
  "the_k",
  "E_K",
  "XXX_X",
  "PARK",
  "park",
  "ARK",
  "Tang",
  "tang",
  "ang",
  "SH",
  "sh",
  "42",
  "Toa",
  "toa",
  "K3",
  "k3",
  "Xd",
  "cong",
  "c",
  "ong",
  "trinh",
  "chung",
  "ung",
  "cu",
  "ket",
  "hop",
  "dich",
  "ich",
  "vu",
  "v",
  "tren",
  "ren",
  "dat",
  "CT2",
  "ct2",
  "XXd",
  "thuoc",
  "uoc",
  "Du_an",
  "du_an",
  "_an",
  "Dau",
  "dau",
  "tu",
  "xay",
  "dung",
  "Khu_nha",
  "khu_nha",
  "nha",
  "Xxx_xxx",
  "Hi_Brand",
  "hi_brand",
  "and",
  "Xx_Xxxxx",
  "09",
  "2019",
  "019",
  "50",
  "29",
  "Tong",
  "tong",
  "so",
  "s",
  "tien",
  "ien",
  "thanh",
  "anh",
  "toan",
  "oan",
  "6,800.00",
  "6",
  ".00",
  "d,ddd.dd",
  "tai",
  "do",
  "thi",
  "moi",
  "m",
  "Van_Phu",
  "van_phu",
  "Phu",
  "Phu_La",
  "phu_la",
  "_La",
  "Xxx_Xx",
  "Ha_Dong",
  "ha_dong",
  "Xx_Xxxx",
  "Tp",
  "Ha_Noi",
  "ha_noi",
  "Noi",
  "82,000",
  "12",
  "62,000",
  "Si\u00eau_th\u1ecb",
  "si\u00eau_th\u1ecb",
  "th\u1ecb",
  "Xxxx_xxx",
  "th\u00fa",
  "c\u01b0ng",
  "\u01b0ng",
  "PET",
  "pet",
  "Y\u00caU",
  "y\u00eau",
  "Y",
  "\u0110\u1ecba_ch\u1ec9",
  "\u0111\u1ecba_ch\u1ec9",
  "ch\u1ec9",
  "11B",
  "11b",
  "ddX",
  "N\u01a1",
  "n\u01a1",
  "Trang_Long",
  "trang_long",
  "Ph\u01b0\u1eddng",
  "ph\u01b0\u1eddng",
  "\u1eddng",
  "Qu\u1eadn",
  "qu\u1eadn",
  "u\u1eadn",
  "B\u00ecnh_Th\u1ea1nh",
  "b\u00ecnh_th\u1ea1nh",
  "B",
  "\u1ea1nh",
  "Xxxx_Xxxxx",
  "H\u1ed3_Ch\u00ed",
  "h\u1ed3_ch\u00ed",
  "Ch\u00ed",
  "Minh",
  "minh",
  "th\u00e1ng",
  "\u00e1ng",
  "n",
  "T\u1ed5ng_thanh_to\u00e1n",
  "t\u1ed5ng_thanh_to\u00e1n",
  "o\u00e1n",
  "Xxxx_xxxx_xxxx",
  "63.000",
  "590",
  "Tr\u1ea7n_Ph\u00fa_S\u1ed1",
  "tr\u1ea7n_ph\u00fa_s\u1ed1",
  "_S\u1ed1",
  "Xxxx_Xxx_Xx",
  "Tr\u1ea7n_Ph\u00fa",
  "tr\u1ea7n_ph\u00fa",
  "Ph\u00fa",
  "Xxxx_Xxx",
  "C\u1ea9m_Th\u1ee7y_TP.",
  "c\u1ea9m_th\u1ee7y_tp.",
  "Xxx_Xxxx_XX.",
  "6.000",
  "d.ddd",
  "CNH",
  "cnh",
  "112",
  "Thanh_Ni\u00ean",
  "thanh_ni\u00ean",
  "i\u00ean",
  "S\u1ed1",
  "s\u1ed1",
  "Thanh_H\u00f3a",
  "thanh_h\u00f3a",
  "H\u00f3a",
  "Xxxxx_Xxx",
  "C\u1ea9m_Th\u00e0nh",
  "c\u1ea9m_th\u00e0nh",
  "Xxx_Xxxxx",
  "02",
  "44.000",
  "CTY",
  "cty",
  "CP",
  "cp",
  "S\u00c1CH",
  "s\u00e1ch",
  "\u00c1CH",
  "&",
  "TBTH",
  "tbth",
  "BTH",
  "QU\u1ea2NG_NINH",
  "INH",
  "\u0110C",
  "\u0111c",
  "Long_Tien",
  "long_tien",
  "L",
  "Xxxx_Xxxx",
  "H\u1ea1_Long",
  "h\u1ea1_long",
  "ON",
  "on",
  "Print",
  "print",
  "int",
  "time",
  "ime",
  "21",
  "54",
  "05",
  "T\u1ed5ng_s\u1ed1",
  "t\u1ed5ng_s\u1ed1",
  "_s\u1ed1",
  "Xxxx_xx",
  "33.212.050",
  "050",
  "dd.ddd.ddd",
  "C\u1ea9m_Th\u00fay",
  "c\u1ea9m_th\u00fay",
  "h\u00fay",
  "HP.",
  "hp.",
  "59",
  "262.588",
  "588",
  "ddd.ddd",
  "ONH",
  "onh",
  "D\u01b0_\u00e1n",
  "d\u01b0_\u00e1n",
  "56",
  "98.085",
  "9",
  "085",
  "T\u1ed5ng_c\u00f4ng",
  "t\u1ed5ng_c\u00f4ng",
  "\u00f4ng",
  "(",
  "\u0111\u00e3",
  "g\u1ed3m",
  "g",
  "VAT",
  "vat",
  ")",
  "93.500",
  "500",
  "FamilyMart",
  "familymart",
  "art",
  "XxxxxXxxx",
  "Block",
  "block",
  "ock",
  "D3",
  "d3",
  "KTX",
  "ktx",
  "\u0110HQG",
  "\u0111hqg",
  "HQG",
  "\u0110\u00f4ng_H\u00f2a",
  "\u0111\u00f4ng_h\u00f2a",
  "H\u00f2a",
  "TX",
  "tx",
  "D\u0129_An",
  "d\u0129_an",
  "_An",
  "Xx_Xx",
  "B\u00ecnh_D\u01b0\u01a1ng",
  "b\u00ecnh_d\u01b0\u01a1ng",
  "\u01a1ng",
  "Vin",
  "vin",
  "C\u1ea9m_Trung_T\u1ed5",
  "c\u1ea9m_trung_t\u1ed5",
  "_T\u1ed5",
  "Xxx_Xxxxx_Xx",
  "2B",
  "2b",
  "dX",
  "C\u1ea9m_Tung",
  "c\u1ea9m_tung",
  "49.500",
  "Ph\u00fa_Th\u1ee5y",
  "ph\u00fa_th\u1ee5y",
  "h\u1ee5y",
  "54,000",
  "Vitimex",
  "vitimex",
  "mex",
  "VinCom",
  "vincom",
  "Com",
  "XxxXxx",
  "C\u1ea9m_Ph\u1ea3_C\u1ea9m_Ph\u1ea3",
  "c\u1ea9m_ph\u1ea3_c\u1ea9m_ph\u1ea3",
  "490,000",
  "NM",
  "nm",
  "1060",
  "060",
  "1062",
  "062",
  "Tr\u1ea7n_PH\u00fa",
  "PH\u00fa",
  "Xxxx_XXx",
  "Qu\u1ea3ng_Ninh_S\u1ed1",
  "qu\u1ea3ng_ninh_s\u1ed1",
  "Xxxxx_Xxxx_Xx",
  "10604062",
  "\u0110\u01b0\u1eddng",
  "\u0111\u01b0\u1eddng",
  "07",
  "24.500",
  "D\u1ecbch_V\u1ecdng",
  "d\u1ecbch_v\u1ecdng",
  "\u1ecdng",
  "C\u1ea7u",
  "c\u1ea7u",
  "Gi\u1ea5y",
  "gi\u1ea5y",
  "i\u1ea5y",
  "Th\u00e0ng",
  "th\u00e0ng",
  "Long",
  "long",
  "209.996",
  "996",
  "208,000",
  "PH\u1ed0",
  "ph\u1ed1",
  "MO",
  "mo",
  "C\u1ea9m_Th\u1ee7y_Tp.",
  "Xxx_Xxxx_Xx.",
  "20",
  "30,000",
  "Qu\u1ea3ng_H\u00e0nh",
  "qu\u1ea3ng_h\u00e0nh",
  "10.000",
  "Saiigono_Co",
  "saiigono_co",
  "Ha",
  "ha",
  "noi",
  "44",
  "25,200.00",
  "dd,ddd.dd",
  "VN",
  "vn",
  "KDC",
  "kdc",
  "l\u1ea5n",
  "l",
  "bi\u1ebfn",
  "i\u1ebfn",
  "c\u1ecdc",
  "DCLB",
  "dclb",
  "CLB",
  "coc",
  "22",
  "208.100",
  "100",
  "240,000",
  "SIEU",
  "sieu",
  "IEU",
  "THI",
  "BACH",
  "bach",
  "ACH",
  "HOA",
  "hoa",
  "TONG",
  "ONG",
  "HOP",
  "C\u1ea9m_T\u00e2y",
  "c\u1ea9m_t\u00e2y",
  "T\u00e2y",
  "85,700",
  "700",
  "161,500",
  "bi\u1ec3n",
  "i\u1ec3n",
  "118.000",
  "53",
  "345,000",
  "77,000",
  "TT.",
  "tt.",
  "21.277",
  "277",
  "Khu_Minh_Ti\u1ebfn",
  "khu_minh_ti\u1ebfn",
  "Xxx_Xxxx_Xxxx",
  "A_T\u1ed5",
  "a_t\u1ed5",
  "X_Xx",
  "a",
  "C\u1ea9m_B\u00ecnh_Tp",
  "c\u1ea9m_b\u00ecnh_tp",
  "_Tp",
  "Xxx_Xxxx_Xx",
  "28",
  "23.500",
  "113,000",
  "SCTC",
  "sctc",
  "CTC",
  "C\u00d4",
  "c\u00f4",
  "TH\u1ece",
  "th\u1ecf",
  "104",
  "TR\u1ea6N",
  "tr\u1ea7n",
  "R\u1ea6N",
  "PH\u00da",
  "ph\u00fa",
  "C\u1ea8M",
  "c\u1ea9m",
  "PH\u1ea2",
  "ph\u1ea3",
  "p",
  "Th\u00e0nh_ph\u1ed1",
  "th\u00e0nh_ph\u1ed1",
  "Xxxxx_xxx",
  "50.000",
  "Ph\u00fac",
  "ph\u00fac",
  "h\u00fac",
  "Anh",
  "Minimimart",
  "minimimart",
  "248",
  "C\u1ed5_Bi",
  "c\u1ed5_bi",
  "_Bi",
  "06",
  "44,000",
  "46",
  "116,010",
  "010",
  "63,500",
  "NH\u00c0_S\u00c1CH",
  "nh\u00e0_s\u00e1ch",
  "GD",
  "gd",
  "TC",
  "tc",
  "212",
  "01",
  "thanh_to\u00e1n",
  "xxxx_xxxx",
  "26.000",
  "Minh_Ti\u1ebfn",
  "minh_ti\u1ebfn",
  "C\u1ea9m_B\u00ecnh",
  "c\u1ea9m_b\u00ecnh",
  "\u00ecnh",
  "31",
  "58.500",
  "01.10.2020",
  "dd.dd.dddd",
  "09.01",
  ".01",
  "dd.dd",
  "Thanh_To\u00e1n",
  "49000",
  "106041062",
  "10604082",
  "082",
  "04",
  "25.600",
  "600",
  "M\u1ede",
  "m\u1edf",
  "70,000",
  "95.800",
  "800",
  "47,000",
  "ANANAN",
  "ananan",
  "59,500",
  "C\u01a0M",
  "c\u01a1m",
  "G\u00c0",
  "g\u00e0",
  "B\u1ea2O",
  "b\u1ea3o",
  "NG\u1eccC",
  "ng\u1ecdc",
  "G\u1eccC",
  "Cs",
  "cs",
  "37",
  "\u0110\u1ed3ng_B\u00f4ng",
  "\u0111\u1ed3ng_b\u00f4ng",
  "D\u1ecbch_V\u1ecdng_H\u1eadu",
  "d\u1ecbch_v\u1ecdng_h\u1eadu",
  "H\u1eadu",
  "Xxxx_Xxxx_Xxx",
  "55",
  "1,475,000",
  "d,ddd,ddd",
  "30",
  "CH",
  "ch",
  "Ti\u1ec1n",
  "85.000",
  "51",
  "kh\u00e1ch",
  "\u00e1ch",
  "tr\u1ea3",
  "75.900",
  "TH\u1ee8C",
  "th\u1ee9c",
  "H\u1ee8C",
  "Quang_Trung",
  "quang_trung",
  "Xxxxx_Xxxxx",
  "P10",
  "p10",
  "Xdd",
  "Ng\u00e0y_th\u00e1ng",
  "ng\u00e0y_th\u00e1ng",
  "31.032019",
  "dd.dddd",
  "70",
  "Gi\u1edd",
  "gi\u1edd",
  "v\u00e0o",
  "ra",
  "r",
  "14422",
  "422",
  "T\u00caN",
  "t\u00ean",
  "\u0110\u1ea0I_L\u00dd",
  "\u0111\u1ea1i_l\u00fd",
  "_L\u00dd",
  "XXX_XX",
  "\u0110\u1ecaA_CH\u1ec8",
  "CH\u1ec8",
  "XXX_XXX",
  "NG\u00c0Y",
  "G\u00c0Y",
  "T\u1ed4NG_C\u1ed8NG",
  "\u1ed8NG",
  "UHD510510",
  "uhd510510",
  "U",
  "510",
  "XXXdddd",
  "760",
  "S\u00ec",
  "s\u00ec",
  "gon",
  "SH42",
  "sh42",
  "H42",
  "XXdd",
  "Cong_trinh",
  "cong_trinh",
  "C\u1ea9m_Tay",
  "c\u1ea9m_tay",
  "Tay",
  "27,700",
  "86",
  "36",
  "Th\u00e0n_Ph\u1ed1",
  "th\u00e0n_ph\u1ed1",
  "Ph\u1ed1",
  "174.000",
  "VGH_VINMART_1987_VMQNH",
  "vgh_vinmart_1987_vmqnh",
  "XXX_XXXX_dddd_XXXX",
  "T\u1ed4",
  "KHU",
  "3B",
  "3b",
  "TRUNG",
  "trung",
  "UNG",
  "QU\u1ea2NG",
  "qu\u1ea3ng",
  "\u1ea2NG",
  "NINH_Nam",
  "ninh_nam",
  "Nam",
  "XXXX_Xxx",
  "GI\u00c1",
  "gi\u00e1",
  "58",
  "VND110",
  "vnd110",
  "110",
  "XXXddd",
  "898",
  "\u1ed5ng",
  "\u1ed5",
  "57,000",
  "24,500.00",
  "Dong",
  "dong",
  "23",
  "34",
  "t\u1ea1i",
  "Van",
  "van",
  "Phu_P.",
  "phu_p.",
  "_P.",
  "Xxx_X.",
  "Noi_Saigon_Co",
  "noi_saigon_co",
  "52",
  "15.000",
  "79.000",
  "03",
  "49,500",
  "210,000",
  "8.435",
  "435",
  "Vincommerce",
  "33",
  "54.287",
  "287",
  "14.900",
  "DIM",
  "dim",
  "SUM",
  "sum",
  "CORNER",
  "corner",
  "NER",
  "H\u00d2A",
  "h\u00f2a",
  "Trung_H\u00f2a",
  "trung_h\u00f2a",
  "35",
  "T\u1ed1ng_thanh_to\u00e1n",
  "t\u1ed1ng_thanh_to\u00e1n",
  "292.000",
  "c\u1ee7a",
  "84.000",
  "H\u1ec6_TH\u1ed0NG",
  "h\u1ec7_th\u1ed1ng",
  "\u1ed0NG",
  "XX_XXXX",
  "H\u1ed3ng",
  "h\u1ed3ng",
  "\u1ed3ng",
  "14.690.890.894",
  "894",
  "dd.ddd.ddd.ddd",
  "HNI",
  "hni",
  "32",
  "L\u00e1ng_Trung_s\u1ed1",
  "l\u00e1ng_trung_s\u1ed1",
  "Xxxx_Xxxxx_xx",
  "Ng\u00f4_L\u00e1ng_Trung",
  "ng\u00f4_l\u00e1ng_trung",
  "Xxx_Xxxx_Xxxxx",
  "L\u0103ng",
  "l\u0103ng",
  "\u0103ng",
  "\u0110\u1ed1ng_\u0110a",
  "\u0111\u1ed1ng_\u0111a",
  "_\u0110a",
  "Xxxx_Xx",
  "HOUSE",
  "house",
  "02.10.2020",
  "14.18",
  ".18",
  "72000",
  "442,000",
  "39",
  "53.000",
  "PH\u1ea0M",
  "ph\u1ea1m",
  "H\u1ea0M",
  "MINH",
  "TI\u1ebeN",
  "ti\u1ebfn",
  "I\u1ebeN",
  "C\u00c2",
  "c\u00e2",
  "TH\u1edcI",
  "th\u1eddi",
  "H\u1edcI",
  "GIA",
  "gia",
  "T\u1ea0I",
  "QU\u1ea6Y",
  "qu\u1ea7y",
  "U\u1ea6Y",
  "200.000",
  "562,000",
  "Ph\u00fa_Th\u1ecb_Gia",
  "ph\u00fa_th\u1ecb_gia",
  "Gia",
  "Xxx_Xxx_Xxx",
  "Lam",
  "lam",
  "48",
  "30.000",
  "\u0111\u1ea7u_t\u01b0",
  "_t\u01b0",
  "xxx_xx",
  "x\u00e2y_d\u1ef1ng",
  "\u1ef1ng",
  "xxx_xxxx",
  "nh\u00e0",
  "\u1edf",
  "PHu",
  "phu",
  "XXx",
  "Ngay",
  "ngay",
  "gay",
  "81,140,00",
  ",00",
  "dd,ddd,dd",
  "Commerce",
  "commerce",
  "O14H",
  "o14h",
  "14H",
  "XddX",
  "1099",
  "099",
  "1052",
  "052",
  "YP",
  "yp",
  "T\u00d4NG",
  "t\u00f4ng",
  "\u00d4NG",
  "TI\u1ec0N",
  "141.200",
  "200",
  "133.000",
  "226,000",
  "66,000",
  "0.042.412",
  "412",
  "d.ddd.ddd",
  "PH\u1ea2_\u0110c",
  "ph\u1ea3_\u0111c",
  "_\u0110c",
  "XXX_Xx",
  "202.000",
  "80,000",
  "C\u1ea9m_Th\u1ee7y_Tp",
  "c\u1ea9m_th\u1ee7y_tp",
  "20,000",
  "98,000",
  "s\u1eedi",
  "97,000",
  "C\u1ea9m_Thu\u1ef7",
  "c\u1ea9m_thu\u1ef7",
  "hu\u1ef7",
  "313.313",
  "313",
  "T\u00e2m",
  "t\u00e2m",
  "VAN",
  "KHE",
  "khe",
  "400m2",
  "0m2",
  "dddxd",
  "CT5A",
  "ct5a",
  "T5A",
  "XXdX",
  "du",
  "an",
  "Van_Khe_tai",
  "van_khe_tai",
  "Xxx_Xxx_xxx",
  "dia",
  "chi",
  "Van_Khe",
  "van_khe",
  "Khe",
  "Xx.",
  "163,024.00",
  "ddd,ddd.dd",
  "C\u1ea9m_Trung",
  "c\u1ea9m_trung",
  "5.000",
  "SI\u1ec0U",
  "si\u1ec1u",
  "I\u1ec0U",
  "TH\u1eca",
  "LOAN",
  "loan",
  "OAN",
  "TT",
  "tt",
  "101",
  "CC",
  "T\u1ea7ng",
  "t\u1ea7ng",
  "\u1ea7ng",
  "Ng\u00f5",
  "ng\u00f5",
  "25",
  "V\u0169_Ng\u1ecdc",
  "v\u0169_ng\u1ecdc",
  "g\u1ecdc",
  "Phan",
  "phan",
  "han",
  "VND",
  "vnd",
  "61",
  "155,000",
  "463",
  "66",
  "Di\u00eam_Thu\u1ef7_S\u1ed1",
  "di\u00eam_thu\u1ef7_s\u1ed1",
  "Xxxx_Xxxx_Xx",
  "Khu_Di\u00eam_Thuy",
  "khu_di\u00eam_thuy",
  "huy",
  "C\u00e2m_\u0110\u00f4ng",
  "c\u00e2m_\u0111\u00f4ng",
  ">",
  "C\u00e2m",
  "c\u00e2m",
  "Pha",
  "pha",
  "9.000",
  "49,002",
  "002",
  "178,000",
  "87,500",
  "67,600",
  "48.600",
  "T\u1ef0",
  "t\u1ef1",
  "CH\u1eccN",
  "ch\u1ecdn",
  "H\u1eccN",
  "ANH",
  "GIANG",
  "giang",
  "ANG",
  "address",
  "ess",
  "Date",
  "date",
  "ate",
  "PM",
  "pm",
  "T\u1ed5ng_ph\u1ea3i",
  "t\u1ed5ng_ph\u1ea3i",
  "h\u1ea3i",
  "278,000",
  "36,490.00",
  "H\u1ed2NG",
  "\u1ed2NG",
  "7.800",
  "Het",
  "het",
  "690",
  "227,040",
  "040",
  "L\u1ee5c_Qu\u00e2n",
  "l\u1ee5c_qu\u00e2n",
  "u\u00e2n",
  "C\u1ed5_\u0110\u00f4ng",
  "c\u1ed5_\u0111\u00f4ng",
  "th\u1ecb_x\u00e3",
  "_x\u00e3",
  "S\u01a1n_T\u00e2y",
  "s\u01a1n_t\u00e2y",
  "253.000",
  "88.700",
  "219,500",
  "k\u1eb9t",
  "27,200.00",
  "376,000",
  "TI\u1ec1n",
  "I\u1ec1n",
  "XXxx",
  "96,000",
  "MILANO",
  "milano",
  "ANO",
  "186",
  "C\u1ea7y",
  "c\u1ea7y",
  "Tr\u00e2m",
  "tr\u00e2m",
  "r\u00e2m",
  "HCM",
  "hcm",
  "15.56",
  ".56",
  "Ti\u00ean",
  "ti\u00ean",
  "VinMart",
  "vinmart",
  "XxxXxxx",
  "49.062",
  "110,000",
  "180,000",
  "231,996",
  "236,000",
  "147,510",
  "61.800",
  "79,295",
  "295",
  "296,016",
  "016",
  "115,000",
  "118,500",
  "49",
  "T\u1ed1ng_s\u1ed1",
  "t\u1ed1ng_s\u1ed1",
  "408.000",
  "Net",
  "net",
  "Ha_\u0110ong",
  "ha_\u0111ong",
  "40",
  "36.600.00",
  "dd.ddd.dd",
  "120",
  "64.200",
  "VGH",
  "vgh",
  "Vinmart",
  "1982",
  "982",
  "UHD402",
  "uhd402",
  "402",
  "766",
  "99,000",
  "25.500",
  "TT101",
  "tt101",
  "XXddd",
  "3353",
  "353",
  "168,000",
  "D\u01b0\u01a1ng",
  "d\u01b0\u01a1ng",
  "2018",
  "018",
  "22.000",
  "00",
  "7.000",
  "NH\u00c0_THU\u1ed0C",
  "nh\u00e0_thu\u1ed1c",
  "U\u1ed0C",
  "B\u1ec6NH_VI\u1ec6N",
  "b\u1ec7nh_vi\u1ec7n",
  "I\u1ec6N",
  "\u0110A_KHOA",
  "\u0111a_khoa",
  "TH\u00c0NH_PH\u1ed0",
  "XXXX_XXX",
  "VINH",
  "vinh",
  "178",
  "H\u1ed3ng_S\u01a1n",
  "h\u1ed3ng_s\u01a1n",
  "Vinh",
  "Ngh\u1ec7_An",
  "ngh\u1ec7_an",
  "mua",
  "24",
  "46.000",
  "209,000",
  "35,000",
  "c\u1ed5",
  "TH\u1ed5",
  "th\u1ed5",
  "PHA",
  "Qu\u1ea3ng_T\u1ec9nh",
  "qu\u1ea3ng_t\u1ec9nh",
  "\u1ec9nh",
  "DC",
  "dc",
  "209.000",
  "27,000",
  "6,800,00",
  "d,ddd,dd",
  "91,000",
  "L\u00e1ng_Trung_S\u1ed1",
  "Xxxx_Xxxxx_Xx",
  "L\u00e1ng_Trung",
  "l\u00e1ng_trung",
  "L\u00e1ng",
  "l\u00e1ng",
  "H\u00e0_Q.",
  "h\u00e0_q.",
  "_Q.",
  "Xx_X.",
  "UNIQLO",
  "uniqlo",
  "QLO",
  "Vincom",
  "com",
  "pham",
  "ham",
  "Ng\u1ecdc_Th\u1ea1ch",
  "ng\u1ecdc_th\u1ea1ch",
  "\u1ea1ch",
  "Ph\u1ea1m",
  "h\u1ea1m",
  "Ng\u1ecdc_Th\u1ea1ch_Ph\u01b0\u1eddng",
  "ng\u1ecdc_th\u1ea1ch_ph\u01b0\u1eddng",
  "Xxxx_Xxxxx_Xxxxx",
  "Trung_T\u1ef1",
  "trung_t\u1ef1",
  "_T\u1ef1",
  "\u0110\u1ed1ng",
  "\u0111\u1ed1ng",
  "\u1ed1ng",
  "\u0110a",
  "\u0111a",
  "1,095,000",
  "NM4",
  "nm4",
  "33.800",
  "124.000",
  "165.000",
  "170,000",
  "COFEE",
  "cofee",
  "06.04.2019",
  "12.16",
  ".16",
  "35000",
  "85,000",
  "238,008",
  "008",
  "43.200",
  "TEN",
  "ten",
  "DAI",
  "dai",
  "LY",
  "ly",
  "VGK",
  "vgk",
  "VINMART",
  "4987",
  "987",
  "VMQMH",
  "vmqmh",
  "QMH",
  "CAM",
  "cam",
  "QUANG",
  "quang",
  "NINH",
  "ninh",
  "45.09",
  ".09",
  "VND75",
  "vnd75",
  "D75",
  "XXXdd",
  "52.000",
  "8,300",
  "d,ddd",
  "104,000",
  "51,500",
  "xx_xxxx",
  "T\u1ed5ng_Ti\u1ec1n",
  "15.796.516",
  "516",
  "Ph\u00fa_Th\u1ecb_Th\u1ecb_Gia_L\u00e2m",
  "ph\u00fa_th\u1ecb_th\u1ecb_gia_l\u00e2m",
  "Xxx_Xxx_Xxx_Xxx_Xxx",
  "475,000",
  "PH\u00d3_M\u1ece",
  "ph\u00f3_m\u1ecf",
  "_M\u1ece",
  "P_C\u1ea9m_Th\u1ee7y",
  "p_c\u1ea9m_th\u1ee7y",
  "h\u1ee7y",
  "X_Xxx_Xxxx",
  "53,000",
  "saigon",
  "Khu_Di\u00eam_Th\u1ee7y_S\u1ed1",
  "khu_di\u00eam_th\u1ee7y_s\u1ed1",
  "Xxx_Xxxx_Xxxx_Xx",
  "D\u00e2m",
  "d\u00e2m",
  "Thu\u1ef7_P.",
  "thu\u1ef7_p.",
  "Xxxx_X.",
  "C\u1ea9m_\u0110\u00f4ng",
  "c\u1ea9m_\u0111\u00f4ng",
  "74.100",
  "0\u0111",
  "dx",
  "CK",
  "ck",
  "Gi\u00e1",
  "SL",
  "sl",
  "th\u1ee7_c\u00f4ng",
  "A4",
  "a4",
  "Chi\u1ebft_kh\u1ea5u",
  "chi\u1ebft_kh\u1ea5u",
  "h\u1ea5u",
  "Xxxxx_xxxx",
  "T\u00ean",
  "\u0110T",
  "\u0111t",
  "0333863328",
  "328",
  "Fax",
  "fax",
  "Nh\u00e2n_vi\u00ean",
  "nh\u00e2n_vi\u00ean",
  "thu_ng\u00e2n",
  "g\u00e2n",
  "25.000",
  "47",
  "22.500",
  "243,000",
  "10601062",
  "108.256",
  "256",
  "d\u1ecdc",
  "Nguy\u1ec5n",
  "nguy\u1ec5n",
  "y\u1ec5n",
  "Th\u1ecb_\u0110\u1ecbnh",
  "th\u1ecb_\u0111\u1ecbnh",
  "\u1ecbnh",
  "06.07.2020",
  "234000",
  "170.400",
  "400",
  "KHu",
  "P_C\u1ea9m_B\u00ecnh",
  "p_c\u1ea9m_b\u00ecnh",
  "42.904",
  "904",
  "100,010",
  "\u0110\u1ed3ng",
  "\u0111\u1ed3ng",
  "280.000",
  "T\u1edcNG",
  "t\u1eddng",
  "\u1edcNG",
  "72.172",
  "172",
  "VMA",
  "vma",
  "142",
  "10.702",
  "702",
  "\u0111\u00e1t",
  "\u0111\u01b0\u1edbng",
  "\u1edbng",
  "322.800",
  "65,500",
  "50,000",
  "11,936",
  "936",
  "C\u1ea9m_Thu\u1ef7_Tp.",
  "c\u1ea9m_thu\u1ef7_tp.",
  "17.664",
  "664",
  "M\u1ef9_\u0110\u00ecnh_T\u1ea7ng",
  "m\u1ef9_\u0111\u00ecnh_t\u1ea7ng",
  "Xx_Xxxx_Xxxx",
  "CT9",
  "ct9",
  "K\u0110T",
  "k\u0111t",
  "M\u1ef9_\u0110\u00ecnh",
  "m\u1ef9_\u0111\u00ecnh",
  "Li\u00ea_Tr\u00ec",
  "li\u00ea_tr\u00ec",
  "Tr\u00ec",
  "Mam",
  "mam",
  "T\u1eeb",
  "t\u1eeb",
  "Li\u00eam",
  "li\u00eam",
  "i\u00eam",
  "186.033",
  "033",
  "12.000",
  "10.600",
  "39.000",
  "63,000",
  "281,000",
  "mart",
  "opMart",
  "opmart",
  "xxXxxx",
  "HAU",
  "hau",
  "188",
  "Hau_Giang",
  "hau_giang",
  "TpHCM",
  "tphcm",
  "XxXXX",
  "Dat",
  "hang",
  "qua",
  "DT",
  "dt",
  "028.39.600.913",
  "913",
  "ddd.dd.ddd.ddd",
  "16,200.00",
  "40,000",
  "43",
  "20.000",
  "Khu_Minh_Ti\u1ebfn_A",
  "khu_minh_ti\u1ebfn_a",
  "n_A",
  "Xxx_Xxxx_Xxxx_X",
  "11.616",
  "616",
  "TTTM",
  "tttm",
  "TTM",
  "Vincom_S\u1ed1",
  "vincom_s\u1ed1",
  "Ng\u1ecdc_Th\u1ea1ch_Ng\u00e0y",
  "ng\u1ecdc_th\u1ea1ch_ng\u00e0y",
  "Xxxx_Xxxxx_Xxxx",
  "184.500",
  "\u0111ich",
  "23,000.00",
  "46.007",
  "007",
  "T\u1ed4NG",
  "t\u1ed5ng",
  "\u1ed4NG",
  "C\u00d4NG_TY",
  "c\u00f4ng_ty",
  "_TY",
  "XXXX_XX",
  "\u0110\u1ea6U_T\u01af",
  "_T\u01af",
  "PH\u00c1T_TRI\u1ec2N",
  "ph\u00e1t_tri\u1ec3n",
  "I\u1ec2N",
  "\u0110\u01af\u1edcNG",
  "CAO_T\u1ed0C",
  "cao_t\u1ed1c",
  "T\u1ed0C",
  "VI\u1ec6T",
  "vi\u1ec7t",
  "I\u1ec6T",
  "NAM",
  "nam",
  "Cty_TNHH",
  "cty_tnhh",
  "NHH",
  "Xxx_XXXX",
  "MTV",
  "mtv",
  "C\u1ed4_PH\u1ea6N",
  "c\u1ed5_ph\u1ea7n",
  "H\u1ea6N",
  "BOT",
  "bot",
  "PH\u00c1P",
  "ph\u00e1p",
  "H\u00c1P",
  "V\u00c2N",
  "v\u00e2n",
  "C\u1ea6U",
  "GI\u1ebc",
  "gi\u1ebd",
  "Tr\u1ee5_s\u1edf",
  "tr\u1ee5_s\u1edf",
  "_s\u1edf",
  "Xxx_xx",
  "ch\u00ednh",
  "\u00ednh",
  "2,3,4,5",
  "4,5",
  "d,d,d,d",
  "Th\u00e1p_A",
  "th\u00e1p_a",
  "p_A",
  "Xxxx_X",
  "To\u00e0",
  "to\u00e0",
  "CENTRAL",
  "central",
  "RAL",
  "POINT",
  "point",
  "INT",
  "219",
  "Trung_K\u00ednh",
  "trung_k\u00ednh",
  "Y\u00ean_Ho\u00e0",
  "y\u00ean_ho\u00e0",
  "Ho\u00e0",
  "Vi\u1ec7t_Nam",
  "vi\u1ec7t_nam",
  "Km",
  "km",
  "cao",
  "t\u00f3c",
  "Ph\u00e1p_V\u00e2n",
  "ph\u00e1p_v\u00e2n",
  "V\u00e2n",
  "C\u1ea7u_Gi\u1ebd",
  "c\u1ea7u_gi\u1ebd",
  "Gi\u1ebd",
  "n\u1ed9i",
  "Am_X\u00e3",
  "am_x\u00e3",
  "_X\u00e3",
  "Li\u00ean_Ninh",
  "li\u00ean_ninh",
  "Thanh_Tr\u00ec",
  "thanh_tr\u00ec",
  "97.000",
  "PH\u00c0",
  "ph\u00e0",
  "90.000",
  "198,000",
  "4.424",
  "424",
  "Mi",
  "mi",
  "38.000",
  "22,000",
  "107,000",
  "246.000",
  "ANAM",
  "anam",
  "149.585.00",
  "ddd.ddd.dd",
  "191",
  "Quang_Trung_Q.",
  "quang_trung_q.",
  "Xxxxx_Xxxxx_X.",
  "21.04.2019",
  "10.30",
  ".30",
  "10.31",
  ".31",
  "111.000",
  "Guitar",
  "guitar",
  "tar",
  "Cafe",
  "cafe",
  "afe",
  "Phan_Chu_Trinh",
  "phan_chu_trinh",
  "Xxxx_Xxx_Xxxxx",
  "Hi\u1ec7p_Ph\u00fa",
  "hi\u1ec7p_ph\u00fa",
  "H\u1ed3",
  "h\u1ed3",
  "l\u1ea5p",
  "25,000",
  "81.302",
  "302",
  "89,000",
  "C\u00c1M",
  "c\u00e1m",
  "H\u00c0NG",
  "GI\u1edc",
  "252200",
  "9.238.110",
  "321,016",
  "378,000",
  "Nh\u00e0_H\u00e0ng",
  "nh\u00e0_h\u00e0ng",
  "\u00dat_Giang",
  "\u00fat_giang",
  "\u00da",
  "Nguy\u1ec5n_Ch\u00e1nh_ph\u1ed1",
  "nguy\u1ec5n_ch\u00e1nh_ph\u1ed1",
  "Xxxxx_Xxxxx_xxx",
  "Nguy\u1ec5n_Qu\u1ed1c",
  "nguy\u1ec5n_qu\u1ed1c",
  "u\u1ed1c",
  "Tru",
  "tru",
  "299",
  "ho\u1eb7c",
  "o\u1eb7c",
  "\u0111i",
  "\u0111\u1ed1i_di\u1ec7n",
  "i\u1ec7n",
  "Nh\u00e0",
  "Li\u1ec1n",
  "li\u1ec1n",
  "k\u00e8",
  "A10",
  "a10",
  "Nam_Trung_Y\u00ean",
  "nam_trung_y\u00ean",
  "Y\u00ean",
  "Xxx_Xxxxx_Xxx",
  "\u0110i",
  "45",
  "640,000",
  "23,000",
  "76,000",
  "KINH_DOANH",
  "kinh_doanh",
  "5.360.869",
  "869",
  "15,000",
  "80.000",
  "QG\u00f2",
  "qg\u00f2",
  "v\u1ea5p",
  "202009.202009.30",
  "dddd.dddd.dd",
  "38000",
  "Laha",
  "laha",
  "aha",
  "JUST",
  "just",
  "J",
  "UST",
  "GOOP",
  "goop",
  "OOP",
  "857",
  "Nguy\u1ec5n_Ki\u00ean",
  "nguy\u1ec5n_ki\u00ean",
  "P3",
  "p3",
  "09.10.2",
  "0.2",
  "dd.dd.d",
  "C20",
  "c20",
  "G\u00f2",
  "g\u00f2",
  "19.14",
  ".14",
  "60.550",
  "550",
  "BKTX",
  "bktx",
  "\u0110HQG.",
  "\u0111hqg.",
  "QG.",
  "XXXX.",
  "P_\u0110\u00f4ng_Ho\u00e0",
  "p_\u0111\u00f4ng_ho\u00e0",
  "X_Xxxx_Xxx",
  "L\u0129_An",
  "l\u0129_an",
  "28,000",
  "3,700.00",
  "1.003.000",
  "Order",
  "order",
  "der",
  "1.123",
  "123",
  "20.30",
  "Satra",
  "satra",
  "tra",
  "Group",
  "group",
  "oup",
  "Satrafoods",
  "satrafoods",
  "ods",
  "B\u00ecnh_L\u1ee3i",
  "b\u00ecnh_l\u1ee3i",
  "L\u1ee3i",
  "43.500.00",
  "8.000",
  "D\u1ef0_\u00c1N",
  "_\u00c1N",
  "XX_XX",
  "D\u00c2N_C\u01af",
  "d\u00e2n_c\u01b0",
  "_C\u01af",
  "L\u1ea4N",
  "BI\u1ec2N",
  "TH\u1edcI_GIAN",
  "IAN",
  "502.960",
  "960",
  "119.700",
  "BIEU",
  "bieu",
  "c\u00f4ng",
  "125.220",
  "220",
  "335,500",
  "211,500",
  "16,500",
  "136.000",
  "Tr\u1ea7n",
  "r\u1ea7n",
  "Ch\u1ee9c",
  "ch\u1ee9c",
  "h\u1ee9c",
  "s\u01a1n",
  "799,008",
  "47,500",
  "945,300.00",
  "114,000",
  "53.400",
  "C\u1ea9m_Pha",
  "c\u1ea9m_pha",
  "TO\u00c0N",
  "to\u00e0n",
  "O\u00c0N",
  "97.400",
  "83,000",
  "102,000",
  "31.03.2019",
  "10.43",
  ".43",
  "124,000",
  "15.111",
  "111",
  "1987",
  "VMQNH",
  "vmqnh",
  "VNd359",
  "vnd359",
  "359",
  "XXxddd",
  "732",
  "10622",
  "622",
  "Tr\u1ea7n_Ph\u00fa_Soos",
  "tr\u1ea7n_ph\u00fa_soos",
  "oos",
  "Xxxx_Xxx_Xxxx",
  "35.000",
  "101100",
  "Minimart",
  "Kh\u00e1ch",
  "224,000",
  "145,000",
  "DC1",
  "dc1",
  "Coc",
  "B.",
  "b.",
  "P_C\u1ea9m_S\u01a1n",
  "p_c\u1ea9m_s\u01a1n",
  "X_Xxx_Xxx",
  "14.544",
  "544",
  "116,000",
  "A.",
  "a.",
  "C\u1ea8",
  "c\u1ea9",
  "243.214",
  "214",
  "136",
  "Di\u1ec5n",
  "di\u1ec5n",
  "i\u1ec5n",
  "Minh_Khai",
  "minh_khai",
  "hai",
  "B\u1eafc",
  "b\u1eafc",
  "160,000",
  "Khu_T\u00e2n_L\u1eadp",
  "khu_t\u00e2n_l\u1eadp",
  "32,000",
  "BIG",
  "big",
  "AN",
  "CN",
  "cn",
  "CTY_TNHH",
  "TM",
  "tm",
  "DV",
  "dv",
  "PPTH",
  "ppth",
  "PTH",
  "HA",
  "NOI",
  "Cantavil",
  "cantavil",
  "vil",
  "An_Phu",
  "an_phu",
  "KP.",
  "kp.",
  "Q2",
  "q2",
  "CONG",
  "86.100",
  "81.715",
  "715",
  "SI\u00caU_TH\u1eca",
  "B\u00c1CH_HO\u00c1",
  "b\u00e1ch_ho\u00e1",
  "HO\u00c1",
  "T\u1ed4NG_H\u1ee2P_S\u1ed1",
  "t\u1ed5ng_h\u1ee3p_s\u1ed1",
  "XXXX_XXX_Xx",
  "518.900",
  "B\u1ed9",
  "b\u1ed9",
  "S_C\u1ea9m_T\u00e2y",
  "s_c\u1ea9m_t\u00e2y",
  "73.500",
  "COFFE",
  "coffe",
  "FFE",
  "24.03.2019",
  "100,000",
  "28.000",
  "211.820",
  "820",
  "H9USE",
  "h9use",
  "XdXXX",
  "20201149",
  "149",
  "498.467",
  "467",
  "23.000",
  "55,300.00",
  "Th\u1ecb_Gia_L\u00e2m",
  "th\u1ecb_gia_l\u00e2m",
  "149,000",
  "C\u1ea9m_Th\u1ee7y",
  "c\u1ea9m_th\u1ee7y",
  "CHAMPI",
  "champi",
  "MPI",
  "T\u00f2a",
  "t\u00f2a",
  "C1",
  "c1",
  "Khu_B",
  "khu_b",
  "u_B",
  "Xxx_X",
  "PHOG",
  "phog",
  "HOG",
  "19.24",
  ".24",
  "19.25",
  ".25",
  "TO",
  "to",
  "VN\u0110",
  "vn\u0111",
  "229.869",
  "\u0111\u01b0a",
  "th\u1eeba",
  "h\u1eeba",
  "M\u01b0\u1eddi",
  "m\u01b0\u1eddi",
  "\u01b0\u1eddi",
  "l\u00e0m",
  "ngh\u00ecn",
  "h\u00ecn",
  "ch\u1eb5n",
  "h\u1eb5n",
  "C\u1ea3m_\u01a1n",
  "c\u1ea3m_\u01a1n",
  "_\u01a1n",
  "v\u00e0",
  "h\u1eb9n",
  "g\u1eb7p",
  "l\u1ea1i",
  "!",
  "Powered",
  "powered",
  "red",
  "by",
  "POS365",
  "pos365",
  "365",
  "Tr\u00e0_\u0110\u00e0o_Nha_\u0110am",
  "tr\u00e0_\u0111\u00e0o_nha_\u0111am",
  "\u0110am",
  "\u0110\u01a1n_gi\u00e1",
  "\u0111\u01a1n_gi\u00e1",
  "S\u0110T",
  "s\u0111t",
  "Kh\u00e1ch_h\u00e0ng",
  "kh\u00e1ch_h\u00e0ng",
  "HD130820",
  "hd130820",
  "XXdddd",
  "0016",
  "B\u00e0n",
  "b\u00e0n",
  "MANG",
  "mang",
  "V\u1ec0",
  "v\u1ec1",
  "[",
  "]",
  "HO\u00c1_\u0110\u01a0N",
  "ho\u00e1_\u0111\u01a1n",
  "\u0110\u01a0N",
  "B\u00c1N",
  "0858.931931",
  "931",
  "dddd.dddd",
  "CA",
  "ca",
  "160.000",
  "309.000",
  "190.000",
  "C\u00e1t_L\u00e1i",
  "c\u00e1t_l\u00e1i",
  "L\u00e1i",
  "Aozora",
  "aozora",
  "ora",
  "Sushi",
  "sushi",
  "shi",
  "HSa",
  "hsa",
  "Thuy_Khu\u00ea",
  "thuy_khu\u00ea",
  "hu\u00ea",
  "T\u00e2y_H\u1ed3",
  "t\u00e2y_h\u1ed3",
  "_H\u1ed3",
  "T\u1ed5ng",
  "328,000",
  "41.000",
  "QQNH",
  "qqnh",
  "Quang_Ninh",
  "quang_ninh",
  "1050",
  "TTP.",
  "ttp.",
  "XXX.",
  "82.000",
  "08.04.09",
  "dd.dd.dd",
  "117.000",
  "103.205",
  "205",
  "N\u00e0ng",
  "n\u00e0ng",
  "H\u01b0\u01a1ng_S\u1ed1",
  "h\u01b0\u01a1ng_s\u1ed1",
  "583",
  "Km9",
  "km9",
  "Xxd",
  "Nguy\u1ec5n_Tr\u00e3i",
  "nguy\u1ec5n_tr\u00e3i",
  "r\u00e3i",
  "V\u0103n_Qu\u00e1n",
  "v\u0103n_qu\u00e1n",
  "u\u00e1n",
  "H\u00e0_\u0110\u00f4ng",
  "h\u00e0_\u0111\u00f4ng",
  "23.600",
  "75,000",
  "10404042",
  "042",
  "C\u1ea9m_Ph\u1ea3_T\u00eang",
  "c\u1ea9m_ph\u1ea3_t\u00eang",
  "\u00eang",
  "Xxx_Xxx_Xxxx",
  "291.000",
  "Khi",
  "khi",
  "C\u1ea3m_Ph\u1ea3",
  "c\u1ea3m_ph\u1ea3",
  "64,000",
  "900000",
  "QUA",
  "Thanh_M\u1eadn",
  "thanh_m\u1eadn",
  "M\u1eadn",
  "64.000",
  "7.400",
  "Thanh_Ni\u1ec7m",
  "thanh_ni\u1ec7m",
  "i\u1ec7m",
  "425.336",
  "336",
  "88",
  "C\u1ea9m_Ph\u1ea3_T",
  "c\u1ea9m_ph\u1ea3_t",
  "\u1ea3_T",
  "Xxx_Xxx_X",
  "208.728",
  "728",
  "137,000",
  "C\u1eeda",
  "c\u1eeda",
  "INDOCHINA",
  "indochina",
  "I",
  "INA",
  "PLAZA",
  "plaza",
  "AZA",
  "TANG",
  "HANOI",
  "hanoi",
  "299,000",
  "793",
  "Ki\u1ec7m",
  "ki\u1ec7m",
  "T93",
  "t93",
  "Nguy\u1ec5n_Ki\u1ec7m",
  "nguy\u1ec5n_ki\u1ec7m",
  "28.200",
  "5,000",
  "TPHCM",
  "2028",
  "028",
  "H1",
  "h1",
  "748,600.00",
  "135.000",
  "126.000",
  "C\u1ed4",
  "155.000",
  "100.000",
  "93.000",
  "68",
  "105.378",
  "378",
  "12.800",
  "4128",
  "128",
  "168,500",
  "1080",
  "080",
  "17.03.2019",
  "30,250",
  "250",
  "38,000",
  "41.500",
  "Xu\u00e2n",
  "xu\u00e2n",
  "244",
  "23a",
  "ddx",
  "Hu\u1ef3nh",
  "hu\u1ef3nh",
  "\u1ef3nh",
  "V\u0103n_B\u00e1nh",
  "v\u0103n_b\u00e1nh",
  "\u00e1nh",
  "PN",
  "pn",
  "04.10.2020",
  "13.19",
  ".19",
  "Ng\u00e0y_gi\u1edd",
  "ng\u00e0y_gi\u1edd",
  "13.21",
  ".21",
  "81",
  "Qu\u1ea3ng_Ninh_VinCommerce",
  "qu\u1ea3ng_ninh_vincommerce",
  "Xxxxx_Xxxx_XxxXxxxx",
  "98,340",
  "340",
  "Ph\u00fa_Th\u1ecb_Gia_L\u00e2m_L\u00e2m",
  "ph\u00fa_th\u1ecb_gia_l\u00e2m_l\u00e2m",
  "393,000",
  "112,000",
  "TI\u00caN",
  "I\u00caN",
  "QUAY.",
  "quay.",
  "AY.",
  "506.195",
  "195",
  "05.10.2020",
  "08.56",
  "64",
  "20.300",
  "24.000",
  "WWW.",
  "www.",
  "W",
  "WW.",
  "UNIQLO.",
  "uniqlo.",
  "LO.",
  "COM",
  "Ng\u00e0y_Gi\u1edd",
  "2,442,000",
  "T\u1ed4NG_C\u00d4NG",
  "171.500",
  "13.000",
  "95,000",
  "T\u1ed5ng_c\u00f3",
  "t\u1ed5ng_c\u00f3",
  "_c\u00f3",
  "14,000",
  "VCB",
  "vcb",
  "134",
  "L\u00ea_L\u1ee3i",
  "l\u00ea_l\u1ee3i",
  "T\u1ed5ng_ho\u00e1_\u0111\u01a1n",
  "t\u1ed5ng_ho\u00e1_\u0111\u01a1n",
  "\u0111\u01a1n",
  "Xxxx_xxx_xxx",
  "Gi\u1ea3m",
  "gi\u1ea3m",
  "i\u1ea3m",
  "Thanh_Xu\u00e2n",
  "thanh_xu\u00e2n",
  "30.09.2020",
  "Nguy\u1ec5n_Ki\u00eam",
  "nguy\u1ec5n_ki\u00eam",
  "Nguy\u1ec5n_ki\u1ec7m",
  "09,10,2",
  "0,2",
  "dd,dd,d",
  "18.42",
  ".42",
  "15000",
  "555",
  "69,000",
  "Di\u00eam",
  "di\u00eam",
  "Thu\u00fd_S\u1ed1",
  "thu\u00fd_s\u1ed1",
  "483",
  "40.900",
  "Dia",
  "Chi",
  "620.000",
  "70.000",
  "311,016",
  "139.000",
  "400,00,002",
  "ddd,dd,ddd",
  "55,000",
  "30,500",
  "10804062",
  "113.406",
  "406",
  "222,000",
  "C\u1ea9m_Thu\u1ef7_Tp",
  "c\u1ea9m_thu\u1ef7_tp",
  "Nguy\u1ec5n_Th\u01b0\u1ee3ng_Hi\u1ec1n",
  "nguy\u1ec5n_th\u01b0\u1ee3ng_hi\u1ec1n",
  "Xxxxx_Xxxxx_Xxxx",
  "Hai",
  "B\u00e0",
  "b\u00e0",
  "Tr\u01b0ng",
  "tr\u01b0ng",
  "177,004",
  "004",
  "PH\u00daC",
  "H\u00daC",
  "LONG",
  "TRAN",
  "tran",
  "RAN",
  "CAO",
  "TOTAL",
  "total",
  "TAL",
  "MA",
  "ma",
  "QUAN",
  "quan",
  "UAN",
  "C\u1ea9m_Ph\u1ea3m",
  "c\u1ea9m_ph\u1ea3m",
  "h\u1ea3m",
  "XA",
  "xa",
  "LO",
  "lo",
  "141,088.00",
  "126.300",
  "172,000",
  "09.11",
  ".11",
  "33,000",
  "\u0111\u1ecdc",
  "C\u1ea9m_Trung_T\u1ed5_B",
  "c\u1ea9m_trung_t\u1ed5_b",
  "\u1ed5_B",
  "Xxx_Xxxxx_Xx_X",
  "173,500",
  "440,000",
  "295,000",
  "KAI",
  "kai",
  "TEA",
  "tea",
  "SH08",
  "sh08",
  "H08",
  "T\u00f2a_K1",
  "t\u00f2a_k1",
  "_K1",
  "Xxx_Xd",
  "The_K",
  "e_K",
  "Park_V\u0103n_Ph\u00fa",
  "park_v\u0103n_ph\u00fa",
  "20.09.2019",
  "22.10",
  ".10",
  "22.14",
  "102",
  "850",
  "NH\u00c0",
  "10504062",
  "24.450",
  "450",
  "57.600",
  "T\u1ed5ng_Ti\u00ean",
  "t\u1ed5ng_ti\u00ean",
  "5.799.546",
  "546",
  "5.702.546",
  "528.900",
  "232,008",
  "7.196.723",
  "723",
  "92,250",
  "71.000",
  "73,900",
  "51.900",
  "133,000",
  "TIEN",
  "IEN",
  "VGH_VINMART_4987_VMQNH",
  "vgh_vinmart_4987_vmqnh",
  "600\u0111",
  "00\u0111",
  "dddx",
  "155.382",
  "382",
  "T\u1ed4NG_H\u1ee2P",
  "t\u1ed5ng_h\u1ee3p",
  "H\u1ee2P",
  "96.000",
  "26.032.250",
  "XANH",
  "xanh",
  "116",
  "118",
  "V\u0129nh_H\u1ed9i",
  "v\u0129nh_h\u1ed9i",
  "H\u1ed9i",
  "H\u1ed3_Ch\u00ed_Minh",
  "h\u1ed3_ch\u00ed_minh",
  "Xx_Xxx_Xxxx",
  "CT",
  "ct",
  "218,770",
  "770",
  "122.000",
  "94.000",
  "45.500",
  "VCR_VINMart_",
  "vcr_vinmart_",
  "rt_",
  "XXX_XXXXxxx_",
  "VND61",
  "vnd61",
  "D61",
  "390.000",
  "LOTTERIA",
  "lotteria",
  "RIA",
  "TAI",
  "QUAY",
  "quay",
  "UAY",
  "549.885",
  "885",
  "48.000",
  "Khu_H\u00ecnh_Ti\u1ebfn",
  "khu_h\u00ecnh_ti\u1ebfn",
  "50.250",
  "32000",
  "68,750",
  "750",
  "5156",
  "156",
  "B\u00ccNH",
  "b\u00ecnh",
  "\u00ccNH",
  "VMD1",
  "vmd1",
  "MD1",
  "XXXd",
  "528",
  "279",
  "40.000",
  "147,000",
  "125,220",
  "\u1ed1",
  "BIEN",
  "bien",
  "TMQT",
  "tmqt",
  "MQT",
  "Sthi_Big",
  "sthi_big",
  "Big",
  "Thang_Long",
  "thang_long",
  "222",
  "Tr\u1ea7n_Duy_Hung",
  "tr\u1ea7n_duy_hung",
  "cau",
  "Giay",
  "giay",
  "iay",
  "92",
  "400d",
  "00d",
  "\u01108",
  "\u01118",
  "t\u1eadp",
  "Khu_Di\u00eam_Th\u1ee7y_P.",
  "khu_di\u00eam_th\u1ee7y_p.",
  "Xxx_Xxxx_Xxxx_X.",
  "8.400",
  "ctc",
  "26CH",
  "26ch",
  "6CH",
  "ddXX",
  ";",
  "650000",
  "102C1",
  "102c1",
  "2C1",
  "dddXd",
  "Kim_Li\u00ean",
  "kim_li\u00ean",
  "108.100",
  "42,000",
  "199.000",
  "T\u1ed5ng_c\u1ed1",
  "t\u1ed5ng_c\u1ed1",
  "_c\u1ed1",
  "42.900",
  "B\u00c1CH",
  "b\u00e1ch",
  "HO\u00c0",
  "ho\u00e0",
  "Th\u1eeda",
  "th\u1eeda",
  "h\u1eeda",
  "T\u1edd",
  "t\u1edd",
  "b\u1ea3n_\u0111\u1ed3",
  "_\u0111\u1ed3",
  "Khu_ph\u1ed1",
  "khu_ph\u1ed1",
  "\u0110\u00f4ng_Chi\u00eau",
  "\u0111\u00f4ng_chi\u00eau",
  "i\u00eau",
  "T\u00e2n_\u0110\u00f4ng_Hi\u1ec7p",
  "t\u00e2n_\u0111\u00f4ng_hi\u1ec7p",
  "i\u1ec7p",
  "Th\u1ecb_x\u00e3",
  "Thanh_to\u00e1n",
  "88,500",
  "157,000",
  "68.000",
  "VinCommngerce",
  "vincommngerce",
  "168.900",
  "15.500",
  "58.000",
  "167,000",
  "T0",
  "t0",
  "TIEM",
  "tiem",
  "IEM",
  "A_CAM",
  "a_cam",
  "X_XXX",
  "BINH",
  "binh",
  "VND284",
  "vnd284",
  "284",
  "Gaigon_Co",
  "gaigon_co",
  "\u0111\u00f4_th\u1ecb",
  "xx_xxx",
  "V\u0103n_Phu",
  "v\u0103n_phu",
  "48,139.00",
  "91.674",
  "674",
  "28.014.643",
  "643",
  "973.000",
  "19.36",
  ".36",
  "19.38",
  ".38",
  "CASH",
  "cash",
  "ASH",
  "342.500",
  "Gio_L\u00e2m",
  "gio_l\u00e2m",
  "C\u1ea9m_Thuy",
  "c\u1ea9m_thuy",
  "300,000",
  "19.000",
  "QNh",
  "680",
  "M\u1ef8_PH\u1ea8M",
  "m\u1ef9_ph\u1ea9m",
  "H\u1ea8M",
  "SAMMI",
  "sammi",
  "MMI",
  "SHOP",
  "shop",
  "c\u1ea7n",
  "60,000",
  "Duong",
  "duong",
  "81.500",
  "Pharmacity",
  "pharmacity",
  "ity",
  "Th\u1ee7",
  "th\u1ee7",
  "\u0110\u1ee9c",
  "\u0111\u1ee9c",
  "sau",
  "KH",
  "kh",
  "45,280",
  "280",
  "111,000",
  "20.900",
  "114.700",
  "PH\u1ea2_Ho\u00e1",
  "ph\u1ea3_ho\u00e1",
  "Ho\u00e1",
  "XXX_Xxx",
  "C\u1ea3nh_T\u00e2y",
  "c\u1ea3nh_t\u00e2y",
  "72,000",
  "38,004",
  "Thanh_M\u00e2n",
  "thanh_m\u00e2n",
  "M\u00e2n",
  "P_C\u1ea9m_Thanh",
  "p_c\u1ea9m_thanh",
  "X_Xxx_Xxxxx",
  "Qu\u1ea3ng_Minh",
  "qu\u1ea3ng_minh",
  "32.272",
  "272",
  "39.500",
  "bi\u00ean",
  "34.800",
  "32.500",
  "Legend",
  "legend",
  "end",
  "Melcome",
  "melcome",
  "ome",
  "Trung_Nguyen_Legend",
  "trung_nguyen_legend",
  "Xxxxx_Xxxxx_Xxxxx",
  "Add",
  "add",
  "683",
  "685",
  "Total",
  "tal",
  "118,000",
  "382.000",
  "H2",
  "h2",
  "CCEcoLife",
  "ccecolife",
  "ife",
  "XXXxxXxxx",
  "T\u1ed1",
  "t\u1ed1",
  "H\u1eefu_Nam",
  "h\u1eefu_nam",
  "Li\u00ea",
  "li\u00ea",
  "0307",
  "307",
  "T\u1ed5ng_gi\u00e1_tr\u1ecb",
  "t\u1ed5ng_gi\u00e1_tr\u1ecb",
  "tr\u1ecb",
  "111,945",
  "945",
  "19.600",
  "61,000",
  "236,990",
  "78.166",
  "166",
  "Hi\u1ebfp_Ph\u00fa",
  "hi\u1ebfp_ph\u00fa",
  "125,000",
  "131.800",
  "Ga_Dong_Quan",
  "ga_dong_quan",
  "uan",
  "DUONG",
  "HAM",
  "P5",
  "p5",
  "Gio",
  "gio",
  "Vao",
  "vao",
  "Ra",
  "R",
  "C\u1ed8NG",
  "201,840.00",
  "TRUNG_T\u00c2M",
  "trung_t\u00e2m",
  "T\u00c2M",
  "TH\u01af\u01a0NG",
  "th\u01b0\u01a1ng",
  "\u01a0NG",
  "MAI",
  "mai",
  "AEON",
  "aeon",
  "EON",
  "H\u00c0",
  "h\u00e0",
  "\u0110\u00d4NG",
  "\u0111\u00f4ng",
  "S\u1ed0_L\u01af\u1ee2NG",
  "s\u1ed1_l\u01b0\u1ee3ng",
  "\u1ee2NG",
  "M\u1eb6T_H\u00c0NG",
  "m\u1eb7t_h\u00e0ng",
  "164,000",
  "10604052",
  "57.955",
  "955",
  "135,000",
  "TH\u1ed2",
  "th\u1ed3",
  "45.000",
  "209.300",
  "CCB",
  "ccb",
  "168",
  "Kim_Giang",
  "kim_giang",
  "\u0110\u1ea1i_Kim",
  "\u0111\u1ea1i_kim",
  "Kim",
  "Ho\u00e0ng_Mai",
  "ho\u00e0ng_mai",
  "Mai",
  "13.500",
  "43.300",
  "Kh\u00e1nh_To\u00e0n",
  "kh\u00e1nh_to\u00e0n",
  "o\u00e0n",
  "268000",
  "264,500",
  "52.830",
  "830",
  "543,704",
  "704",
  "45,000",
  "212,016",
  "421,000",
  "S4",
  "s4",
  "92,000",
  "02,10.2020",
  "dd,dd.dddd",
  "14.19",
  "48.900",
  "Da_an",
  "da_an",
  "Moi",
  "32,200.00",
  "VGH_VINMART_4939_VMQNH",
  "vgh_vinmart_4939_vmqnh",
  "2060",
  "2062",
  "419,339",
  "339",
  "131,000",
  "03.10.2020",
  "08.52",
  ".52",
  "124000",
  "BOOKS",
  "books",
  "OKS",
  "36.000",
  "103.235",
  "235",
  "75.000",
  "127.000",
  "PHUC",
  "phuc",
  "HUC",
  "P._Cam_Binh",
  "p._cam_binh",
  "X._Xxx_Xxxx",
  "C\u00e2m_Phu",
  "c\u00e2m_phu",
  "Vit",
  "vit",
  "319.500",
  "651,000",
  "98.000",
  "584,000",
  "25.900",
  "585,500",
  "H\u00e0m",
  "h\u00e0m",
  "74,000",
  "116.000",
  "PHO",
  "pho",
  "08.13",
  ".13",
  "R\u00ean",
  "r\u00ean",
  "\u0110\u1ea1i_l\u00fd",
  "_l\u00fd",
  "99.716",
  "716",
  "l\u1ea7n",
  "\u0110A",
  "16.000",
  "33.700",
  "TET",
  "tet",
  "C\u00e2y",
  "c\u00e2y",
  "05050",
  "TH\u1edcI_TRANG",
  "th\u1eddi_trang",
  "ADIDAS",
  "adidas",
  "DAS",
  "17A",
  "17a",
  "BTD",
  "btd",
  "B\u00ecnh_T\u00e2n",
  "b\u00ecnh_t\u00e2n",
  "T\u00e2n",
  "T\u1ed5ng_th\u00e0nh",
  "t\u1ed5ng_th\u00e0nh",
  "122.400",
  "39,000",
  "79.800",
  "20199",
  "199",
  "29,300.00",
  "215,000",
  "\u0110.",
  "\u0111.",
  "24,660",
  "660",
  "T\u00f4_Hi\u1ec7u",
  "t\u00f4_hi\u1ec7u",
  "i\u1ec7u",
  "\u0110\u00edch_V\u1ecdng",
  "\u0111\u00edch_v\u1ecdng",
  "1S5",
  "1s5",
  "dXd",
  "195,000",
  "283,000",
  "76.000",
  "529,000",
  "VELUTNO",
  "velutno",
  "TNO",
  "VELUTINO",
  "velutino",
  "INO",
  "685,000",
  "TDP",
  "tdp",
  "M\u1ec5_Tr\u00ed",
  "m\u1ec5_tr\u00ed",
  "Tr\u00ed",
  "Th\u01b0\u01a1ng",
  "M\u1ec5",
  "m\u1ec5",
  "Tri_th\u01b0\u01a1ng",
  "tri_th\u01b0\u01a1ng",
  "Xxx_xxxx",
  "36.100",
  "Welcome",
  "welcome",
  "31.700",
  "65.000",
  "CHH",
  "chh",
  "3.900",
  "387,000",
  "88,000",
  "119.000",
  "13.16",
  "43.000",
  "KH\u00c1CH",
  "TR\u00c0",
  "tr\u00e0",
  "148.000",
  "49.000",
  "C\u00e2m_Ph\u00fa",
  "c\u00e2m_ph\u00fa",
  "NAI",
  "nai",
  "843",
  "142,500",
  "108,000",
  "C\u1ea9m_Th\u1ecbnh",
  "c\u1ea9m_th\u1ecbnh",
  "45.400",
  "162,000",
  "Tax",
  "tax",
  "invoice",
  "i",
  "ice",
  "will",
  "w",
  "ill",
  "be",
  "issued",
  "ued",
  "within",
  "hin",
  "same",
  "ame",
  "day",
  "Ph\u1ea3i",
  "thu",
  "A001",
  "a001",
  "001",
  "Xddd",
  "Chung_C\u01b0_Citineme",
  "chung_c\u01b0_citineme",
  "eme",
  "Xxxxx_Xx_Xxxxx",
  "169,000",
  "Thanh_Mi\u1ec7n",
  "thanh_mi\u1ec7n",
  "47.900",
  "THANH",
  "TO\u00c1I",
  "to\u00e1i",
  "O\u00c1I",
  "VND495",
  "vnd495",
  "495",
  "638",
  "VMN",
  "vmn",
  "483.200",
  "37.000",
  "66.500",
  "\u0110\u1ed2NG",
  "C\u00f3",
  "c\u00f3",
  "Bi",
  "bi",
  "164.435",
  "PH\u1ea2_ho\u00e1",
  "ho\u00e1",
  "XXX_xxx",
  "08.41",
  ".41",
  "139,200",
  "Aozorora",
  "aozorora",
  "153",
  "1.430.000",
  "580",
  "17.000",
  "VGH_VINMART",
  "vgh_vinmart",
  "VND249",
  "vnd249",
  "249",
  "62,500",
  "51.200",
  "Toor",
  "toor",
  "oor",
  "9.500",
  "12,500",
  "T\u1ea1i",
  "Qu\u1ea7y",
  "u\u1ea7y",
  "4.233.105",
  "105",
  "85",
  "112.534",
  "534",
  "114,150.00",
  "\u0111o",
  "62.500",
  "MINIMAIRT",
  "minimairt",
  "IRT",
  "127,000",
  "C\u1ea9m_Trung_NAM",
  "c\u1ea9m_trung_nam",
  "Xxx_Xxxxx_XXX",
  "97.200",
  "18,200.00",
  "10404062",
  "151.825",
  "825",
  "129.100",
  "C\u1ea9m_Thu\u1ef7_S\u1ed1",
  "c\u1ea9m_thu\u1ef7_s\u1ed1",
  "405.000",
  "57,000.00",
  "237,008",
  "C\u1ea9m_Thanh",
  "c\u1ea9m_thanh",
  "191.084",
  "084",
  "42.000",
  "64.300",
  "23.243",
  "243",
  "WM",
  "wm",
  "VMH",
  "vmh",
  "C\u1ea9m_TRUNG",
  "600.000",
  "Ti\u1ec7m",
  "ti\u1ec7m",
  "21.08",
  ".08",
  "21.09",
  "84,000",
  "252,000",
  "T\u1ed4NG_TI\u1ebeN",
  "t\u1ed5ng_ti\u1ebfn",
  "128.900",
  "L\u00e1nh_H\u1ea1_Q.",
  "l\u00e1nh_h\u1ea1_q.",
  "Xxxx_Xx_X.",
  "78,500",
  "Ch\u1ee9c_S\u01a1n",
  "ch\u1ee9c_s\u01a1n",
  "106,000",
  "41.600",
  "63.400",
  "29,000",
  "3,342,000",
  "\u0110\u1ed2NG_KH\u1edeI",
  "\u0111\u1ed3ng_kh\u1edfi",
  "H\u1edeI",
  "Parkson",
  "parkson",
  "son",
  "Saigon_Tourist",
  "saigon_tourist",
  "ist",
  "3581s",
  "81s",
  "ddddx",
  "L\u00ea_Th\u00e1nh_T\u00f4n",
  "l\u00ea_th\u00e1nh_t\u00f4n",
  "T\u00f4n",
  "Xx_Xxxxx_Xxx",
  "B\u1ebfn_Ngh\u00e9",
  "b\u1ebfn_ngh\u00e9",
  "gh\u00e9",
  "43.800",
  "143.000",
  "410,0006",
  "006",
  "ddd,dddd",
  "297,000",
  "C\u1ea9m_Ph\u00fa",
  "c\u1ea9m_ph\u00fa",
  "70.800",
  "0.357.075",
  "075",
  "73,500",
  "Thu\u1ef7_Khu\u00ea",
  "thu\u1ef7_khu\u00ea",
  "505,000",
  "450.100",
  "86.000",
  "VHA",
  "vha",
  "81,000",
  "123,100",
  "716.000",
  "H\u1ed3ng_Ti\u1ebfn",
  "h\u1ed3ng_ti\u1ebfn",
  "9.091.163",
  "163",
  "<",
  "391.300",
  "Tr\u1ea7n_ph\u00fa",
  "19.500",
  "27,291.20",
  ".20",
  "600.900",
  "TTTH",
  "ttth",
  "TTH",
  "S\u1ee7i_S\u1ed1",
  "s\u1ee7i_s\u1ed1",
  "60.000",
  "322.000",
  "52,000",
  "16,600",
  "41,520.40",
  ".40",
  "\u0110IA",
  "\u0111ia",
  "L\u00dd",
  "l\u00fd",
  "22.409",
  "409",
  "VHa",
  "234,000",
  "CJ",
  "cj",
  "Building",
  "building",
  "ing",
  "Le_Thanh",
  "le_thanh",
  "Ton",
  "ton",
  "Street_Ben",
  "street_ben",
  "Ben",
  "Nghe",
  "nghe",
  "ghe",
  "Ward",
  "ward",
  "ard",
  "Dist",
  "dist",
  "City",
  "city",
  "420,000",
  "14.43",
  "87",
  "105.000",
  "120.800",
  "TR\u1ea2",
  "8.994.348",
  "348",
  "130,000",
  "62.600",
  "47.500",
  "120,000",
  "103,500",
  "B7",
  "b7",
  "500.00",
  "ddd.dd",
  "75,500",
  "27.000",
  "NGUYEN",
  "nguyen",
  "YEN",
  "DINH",
  "dinh",
  "CHIEU",
  "chieu",
  "Nguyen_\u0110inh_Chi\u00eau",
  "nguyen_\u0111inh_chi\u00eau",
  "Xxxxx_Xxxx_Xxxxx",
  "0.3",
  "d.d",
  "880,400.00",
  "H3",
  "h3",
  "111,990",
  "65,000",
  "3.997",
  "997",
  "94,000",
  "90,996",
  "34,000",
  "128.000",
  "10.500",
  "18.000",
  "Phan_Huy_Ich",
  "phan_huy_ich",
  "Ich",
  "G\u00f2_v\u1ea5p",
  "Xx_xxx",
  "10101000",
  "10662",
  "662",
  "20200757",
  "757",
  "B\u00fan_B\u00f2",
  "b\u00fan_b\u00f2",
  "_B\u00f2",
  "Hu\u1ebf",
  "hu\u1ebf",
  "O_Xu\u00e2n",
  "o_xu\u00e2n",
  "X_Xxxx",
  "CS1",
  "cs1",
  "Tu\u1ec7_T\u0129nh",
  "tu\u1ec7_t\u0129nh",
  "\u0129nh",
  "14.07.2020",
  "554",
  "HCMA",
  "hcma",
  "CMA",
  "50.100",
  "81A",
  "81a",
  "Xu\u00e2n_Di\u1ec7u_S\u1ed1",
  "xu\u00e2n_di\u1ec7u_s\u1ed1",
  "Xu\u00e2n_D\u00e2u",
  "xu\u00e2n_d\u00e2u",
  "D\u00e2u",
  "Qu\u1ea3n_An",
  "qu\u1ea3n_an",
  "39.050",
  "coc6",
  "oc6",
  "xxxd",
  "139",
  "Chi\u1ebfn_Th\u1eafng",
  "chi\u1ebfn_th\u1eafng",
  "\u1eafng",
  "P_T\u00e2n_Tri\u1ec1u",
  "p_t\u00e2n_tri\u1ec1u",
  "i\u1ec1u",
  "H_Thanh_Tr\u00ec",
  "h_thanh_tr\u00ec",
  "X_Xxxxx_Xxx",
  "255.000",
  "Runa",
  "runa",
  "una",
  "Corner",
  "ner",
  "Ng\u00e1ch",
  "ng\u00e1ch",
  "Ho\u00e0ng_C\u1ea7u",
  "ho\u00e0ng_c\u1ea7u",
  "\u00f4",
  "D\u1eeba",
  "d\u1eeba",
  "\u0110\u1ed3ng_\u0110a",
  "\u0111\u1ed3ng_\u0111a",
  "T\u1ed1ng",
  "t\u1ed1ng",
  "tr\u00e1i",
  "r\u00e1i",
  "1.300,000",
  "d.ddd,ddd",
  "237,000",
  "L\u00e1ng_H\u1ea1_Q.",
  "l\u00e1ng_h\u1ea1_q.",
  "108.000",
  "Nguy\u1ec5n_V\u0103n",
  "nguy\u1ec5n_v\u0103n",
  "V\u0103n",
  "Qu\u00e1",
  "qu\u00e1",
  "73",
  "KP2",
  "kp2",
  "Nguy\u1ec5n_V\u0103n_Qua",
  "nguy\u1ec5n_v\u0103n_qua",
  "Qua",
  "Xxxxx_Xxx_Xxx",
  "\u0110\u00f4ng_H\u01b0n",
  "\u0111\u00f4ng_h\u01b0n",
  "H\u01b0n",
  "33,813.00",
  "60,500",
  "78,000",
  "KHIU",
  "khiu",
  "HIU",
  "09.04",
  ".04",
  "59000",
  "249,000",
  "Thi\u1ec7p_Ph\u00fa",
  "thi\u1ec7p_ph\u00fa",
  "l\u1eadp",
  "21.04.201",
  "201",
  "dd.dd.ddd",
  "09.10",
  "Tam",
  "tam",
  "52.192",
  "192",
  "58,000",
  "toasn",
  "asn",
  "Grand_Total",
  "grand_total",
  "CND",
  "cnd",
  "14AM",
  "14am",
  "4AM",
  "Nguyen_Dinh",
  "nguyen_dinh",
  "Chieu",
  "ieu",
  "306,060.00",
  "DCL",
  "dcl",
  "cac",
  "42.543",
  "543",
  "101,000",
  "ANANAI",
  "ananai",
  "109,500",
  "21.004.448",
  "448",
  "12.500",
  "59.660",
  "267.728",
  "421,016",
  "\u00c2",
  "\u00e2",
  "10804082",
  "56.384",
  "384",
  "553,750",
  "Vcommerce",
  "vcommerce",
  "Thanh_Hi\u00ean",
  "thanh_hi\u00ean",
  "T\u00d2NG",
  "t\u00f2ng",
  "\u00d2NG",
  "19.900",
  "115.000",
  "14,000.00",
  "9.220.282",
  "282",
  "179.000",
  "184.363",
  "363",
  "105.806",
  "806",
  "31.000",
  "548,000",
  "VitCommerce",
  "vitcommerce",
  "154.100",
  "MINHMART",
  "minhmart",
  "AN\u00c1N",
  "an\u00e1n",
  "N\u00c1N",
  "602,000",
  "13.392",
  "392",
  "216,016",
  "15.30",
  "20.800",
  "52.700",
  "214.690",
  "sai",
  "Dang",
  "dang",
  "qu",
  "VGR_VINMART",
  "vgr_vinmart",
  "NAY",
  "nay",
  "NVD70",
  "nvd70",
  "D70",
  "7000",
  "67,500",
  "253.800",
  "42.600",
  "150,000",
  "H\u1eb9l",
  "h\u1eb9l",
  "Khu_\u0110i\u1ec1m",
  "khu_\u0111i\u1ec1m",
  "i\u1ec1m",
  "Th\u1ee5y_S\u1ed1",
  "th\u1ee5y_s\u1ed1",
  "210.294",
  "294",
  "150.000",
  "09,25",
  ",25",
  "dd,dd",
  "VHai",
  "vhai",
  "188,350",
  "350",
  "338.000",
  "140.000",
  "B\u1ed1",
  "b\u1ed1",
  "72.000",
  "43,000",
  "\u0110\u00ecnh",
  "\u0111\u00ecnh",
  "\u0110inh_Th\u00f4n",
  "\u0111inh_th\u00f4n",
  "U\u1ea5n",
  "u\u1ea5n",
  "464,549",
  "549",
  "294,000",
  "132,000",
  "12.900",
  "47,200",
  "opXtra",
  "opxtra",
  "LINH",
  "linh",
  "Coop",
  "coop",
  "oop",
  "xtra",
  "934",
  "Quoc",
  "quoc",
  "Lo",
  "1A",
  "1a",
  "Linh_Trung",
  "linh_trung",
  "Thu",
  "Duc",
  "duc",
  "51,640.60",
  ".60",
  "VinCommertce",
  "vincommertce",
  "tce",
  "3.000",
  "67,000",
  "52000",
  "C\u1eeeA",
  "c\u1eefa",
  "227,000",
  "6.500.00",
  "d.ddd.dd",
  "222.000",
  "73,000",
  "24.700",
  "Khu_Di\u00eam",
  "khu_di\u00eam",
  "Th\u00fay_S\u1ed1",
  "th\u00fay_s\u1ed1",
  "8,000",
  "C\u00f4ng_ty",
  "_ty",
  "C\u1ed5_Ph\u1ea7n",
  "h\u1ea7n",
  "Th\u1ebf_Gi\u1edbi_Di_\u0110\u1ed9ng",
  "th\u1ebf_gi\u1edbi_di_\u0111\u1ed9ng",
  "Xxx_Xxxx_Xx_Xxxx",
  "5780",
  "780",
  "TINO",
  "tino",
  "Kho",
  "kho",
  "DMX",
  "dmx",
  "Dong_Anh",
  "dong_anh",
  "400.000",
  "C\u1ea7m_S\u01a1n",
  "c\u1ea7m_s\u01a1n",
  "C\u1ea9m_Ph\u00e0",
  "c\u1ea9m_ph\u00e0",
  "Ph\u00e0",
  "C\u1ea4M",
  "c\u1ea5m",
  "C\u1ea9m",
  "Sai",
  "t\u00e2y",
  "16.19",
  "16.21",
  "Thu\u1ef5_Khu\u00ea",
  "thu\u1ef5_khu\u00ea",
  "886,000",
  "14B1",
  "14b1",
  "4B1",
  "ddXd",
  "Ng\u00f4_T\u1ea5t_T\u1ed5",
  "ng\u00f4_t\u1ea5t_t\u1ed5",
  "Xxx_Xxx_Xx",
  "B\u00ecnh_Thanh",
  "b\u00ecnh_thanh",
  "TH\u1eddi_gian",
  "XXxx_xxxx",
  "16.08.2020",
  "08.51",
  ".51",
  "398.125",
  "125",
  "20124",
  "124",
  "540.000",
  "235,008",
  "57.900",
  "131,500",
  "C\u1ea9nm",
  "c\u1ea9nm",
  "\u1ea9nm",
  "Thu\u1ef7_Tp",
  "thu\u1ef7_tp",
  "Ph\u00fa_TH\u1ecb",
  "TH\u1ecb",
  "Xxx_XXx",
  "392,000",
  "26.500",
  "129.000",
  "4587",
  "587",
  "UHD341",
  "uhd341",
  "341",
  "The_Manor",
  "the_manor",
  "nor",
  "91",
  "Ng",
  "ng",
  "Canh",
  "canh",
  "Nguy\u1ec5n_H\u1eefu_C\u1ea3nh",
  "nguy\u1ec5n_h\u1eefu_c\u1ea3nh",
  "\u1ea3nh",
  "Xxxxx_Xxx_Xxxx",
  "235.932",
  "932",
  "430,000",
  "593,000",
  "P_C\u1ea9m_Th\u1ee7y_Tp",
  "p_c\u1ea9m_th\u1ee7y_tp",
  "X_Xxx_Xxxx_Xx",
  "BA",
  "ba",
  "27.800",
  "44.662",
  "T\u1ed5ng_thanh",
  "t\u1ed5ng_thanh",
  "Lo\u00e1n",
  "lo\u00e1n",
  "UHD",
  "uhd",
  "560,215",
  "215",
  "186,000",
  "119.014",
  "014",
  "Th\u00f4i",
  "th\u00f4i",
  "h\u00f4i",
  "19,900",
  "Tang_Ng\u00f5",
  "tang_ng\u00f5",
  "35,500",
  "08.58",
  ".58",
  "50000",
  "229,000",
  "136,000",
  "295,008",
  "1082",
  "Ch\u1ee3_S\u1ee7i",
  "ch\u1ee3_s\u1ee7i",
  "Ph\u1ed1_Th\u1ecb",
  "ph\u1ed1_th\u1ecb",
  "392.000",
  "0869322496",
  "496",
  "02436765210",
  "210",
  "Cty",
  "LD_TNHH",
  "ld_tnhh",
  "KFC",
  "kfc",
  "Viet_Nam",
  "viet_nam",
  "Ba",
  "Trieu",
  "trieu",
  "Ba_Trung",
  "ba_trung",
  "Aug",
  "aug",
  "46,000",
  "T\u00f4ng",
  "T\u00can",
  "S\u1ed0",
  "5.834.728",
  "C_Nam",
  "c_nam",
  "X_Xxx",
  "230,567",
  "567",
  "C\u1ea9m_T\u00ea",
  "c\u1ea9m_t\u00ea",
  "_T\u00ea",
  "159.060",
  "28.528",
  "31,000",
  "840,000",
  "D\u00e2n",
  "d\u00e2n",
  "C\u1ea9m_Ph\u1ea3_Th\u00f2i",
  "c\u1ea9m_ph\u1ea3_th\u00f2i",
  "h\u00f2i",
  "gian",
  "87.643",
  "C\u00e1m_T\u00e2y",
  "c\u00e1m_t\u00e2y",
  "08.19",
  "156.000",
  "24,000",
  "CH\u1ebe",
  "ch\u1ebf",
  "241.000",
  "To",
  "UMD50",
  "umd50",
  "D50",
  "171,000",
  "17.49",
  ".49",
  "229.885",
  "200.381",
  "381",
  "P8",
  "p8",
  "VinCommercce",
  "vincommercce",
  "cce",
  "445",
  "23.400",
  "149,996",
  "Nh\u00e0_h\u00e0ng",
  "BS3",
  "bs3",
  "Th\u1ee5y_Khu\u00ea",
  "th\u1ee5y_khu\u00ea",
  "84.500",
  "2344375",
  "375",
  "373.000",
  "Milano",
  "ano",
  "Coffee",
  "fee",
  "Vietnam",
  "vietnam",
  "02.10.202020",
  "18.25",
  "105,000",
  "240.700",
  "21.000",
  "140,000",
  "6.146.619",
  "619",
  "Ma_Pham",
  "ma_pham",
  "B8",
  "b8",
  "PA",
  "pa",
  "3,564,200.40",
  "d,ddd,ddd.dd",
  "64.800",
  "51.500",
  "33.600",
  "2020.17",
  ".17",
  "dddd.dd",
  "991,000",
  "\u0110\u1ecaA_CH\u1ec8_S\u1ed0",
  "\u0111\u1ecba_ch\u1ec9_s\u1ed1",
  "_S\u1ed0",
  "XXX_XXX_XX",
  "Tai_Qu\u1ea5y",
  "tai_qu\u1ea5y",
  "u\u1ea5y",
  "8.671.929",
  "929",
  "Helcome",
  "helcome",
  "T\u1ed5ng_gi\u00e1",
  "t\u1ed5ng_gi\u00e1",
  "g\u00f3c",
  "510,000",
  "V09",
  "v09",
  "V\u00f5_V\u0103n",
  "v\u00f5_v\u0103n",
  "Ng\u00e2n",
  "ng\u00e2n",
  "TD",
  "td",
  "Y09",
  "y09",
  "V\u00f4_V\u0103n",
  "v\u00f4_v\u0103n",
  "Xu\u00e2n_La",
  "xu\u00e2n_la",
  "145,880",
  "880",
  "62,996",
  "Plu",
  "plu",
  "184,000",
  "opmark",
  "ark",
  "1,044,800.00",
  "13.18",
  "7.200",
  "11.900",
  "48.200",
  "H905E",
  "h905e",
  "05E",
  "XdddX",
  "11.2020",
  "09.09",
  "380000",
  "Linh_ki\u1ec7n",
  "linh_ki\u1ec7n",
  "\u0110i\u1ec7n_T\u1eed",
  "\u0111i\u1ec7n_t\u1eed",
  "_T\u1eed",
  "3M",
  "3m",
  "cho",
  "18,000",
  "\u0110\u00f4ng_Ho\u00e0",
  "\u0111\u00f4ng_ho\u00e0",
  "T\u1ed5ng_Ti\u1ebfn",
  "5.360.399",
  "399",
  "153,000",
  "DI_AN",
  "di_an",
  "_AN",
  "EB",
  "eb",
  "E",
  "\"",
  "EBBD",
  "ebbd",
  "BBD",
  "\u0110ong_Hoa",
  "\u0111ong_hoa",
  "Hoa",
  "Di_An",
  "T\u1ec9nh",
  "t\u1ec9nh",
  "B\u00ecnh_Duong",
  "b\u00ecnh_duong",
  "=",
  "620.1000",
  "ddd.dddd",
  "VP",
  "vp",
  "99,400",
  "21.300",
  "10.800",
  "QUH",
  "quh",
  "429,776.00",
  "63,750",
  "79,000",
  "134,000",
  "176,000",
  "60",
  "80,589",
  "589",
  "26.900",
  "11.58",
  "12.00",
  "UHD461",
  "uhd461",
  "461",
  "288",
  "smile",
  "ile",
  "CO.",
  "co.",
  "OPSMILE",
  "opsmile",
  "ILE",
  "A1",
  "a1",
  "\u0110\u1ea0I_H\u1eccC",
  "\u0111\u1ea1i_h\u1ecdc",
  "H\u1eccC",
  "QU\u1ed0C_GIA",
  "qu\u1ed1c_gia",
  "Ky_tuc",
  "ky_tuc",
  "tuc",
  "Tan_Hoa",
  "tan_hoa",
  "Phuong_Dong_Hoa",
  "phuong_dong_hoa",
  "Xxxxx_Xxxx_Xxx",
  "122.545",
  "545",
  "Cuitar",
  "cuitar",
  "238.240",
  "240",
  "Gi\u1ea3m_gi\u00e1",
  "gi\u1ea3m_gi\u00e1",
  "18.31",
  "98.500",
  "166.404",
  "404",
  "Thanh",
  "N\u0103m",
  "C\u1ea9m_\u0110\u1ed3ng",
  "c\u1ea9m_\u0111\u1ed3ng",
  "8.800",
  "9.744",
  "744",
  "Thanh_Ki\u00ean",
  "thanh_ki\u00ean",
  "P_C\u1ea9m_Th\u00e0nh",
  "p_c\u1ea9m_th\u00e0nh",
  "61.400",
  "L\u0103ng_Trung_S\u1ed1",
  "l\u0103ng_trung_s\u1ed1",
  "ng\u00f4",
  "401.830",
  "55.400",
  "B\u00ecnh_D\u01b0\u01a1ng_Toa",
  "b\u00ecnh_d\u01b0\u01a1ng_toa",
  "Xxxx_Xxxxx_Xxx",
  "15.400",
  "HOC",
  "hoc",
  "QUOC",
  "UOC"
]